Lab02_Verilog_Basis_Simulation/作業/add4.vcd
$date
	Mon Mar 23 19:22:57 2020
$end
$version
	Icarus Verilog
$end
$timescale
	1ps
$end
$scope module testbench_add4 $end
$var wire 1 ! ov $end
$var wire 4 " sum [3:0] $end
$var reg 4 # a [3:0] $end
$var reg 4 $ b [3:0] $end
$var reg 4 % c [3:0] $end
$var reg 1 & clk $end
$var reg 1 ' correct_ov $end
$var reg 4 ( correct_sum [3:0] $end
$var reg 4 ) d [3:0] $end
$var reg 1 * ov4 $end
$var reg 1 + ov5 $end
$var reg 1 , rst $end
$var reg 7 - test_num [6:0] $end
$scope module DUT $end
$var wire 4 . a [3:0] $end
$var wire 4 / b [3:0] $end
$var wire 4 0 c [3:0] $end
$var wire 4 1 d [3:0] $end
$var reg 1 2 ov $end
$var reg 1 3 s0 $end
$var reg 1 4 s1 $end
$var reg 4 5 sum [3:0] $end
$upscope $end
$upscope $end
$enddefinitions $end
#0
$dumpvars
b0 5
04
03
02
b0 1
b0 0
b0 /
b0 .
b0 -
0,
0+
0*
b0 )
b0 (
0'
0&
b0 %
b0 $
b0 #
b0 "
0!
$end
#5000
b110 5
b110 "
b1 )
b1 1
b100 %
b100 0
b1 #
b1 .
b1 -
1,
1&
#10000
b110 (
0,
0&
#15000
b1110 5
b1110 "
b11 )
b11 1
b1001 %
b1001 0
b10 #
b10 .
b10 -
1,
1&
#20000
b1110 (
0,
0&
#25000
12
1!
13
b1101 5
b1101 "
b1101 )
b1101 1
b1101 %
b1101 0
b11 #
b11 .
b11 -
1,
1&
#30000
1'
1*
b1101 (
0,
0&
#35000
02
0!
03
b1011 5
b1011 "
b10 )
b10 1
b101 %
b101 0
b100 #
b100 .
b100 -
1,
1&
#40000
0'
0*
b1011 (
0,
0&
#45000
b11 5
b11 "
b1101 )
b1101 1
b1 %
b1 0
b101 #
b101 .
b101 -
1,
1&
#50000
1'
1*
b11 (
0,
0&
#55000
12
1!
13
b1001 5
b1001 "
b110 %
b110 0
b110 #
b110 .
b110 -
1,
1&
#60000
b1001 (
0,
0&
#65000
14
03
b0 5
b0 "
b1100 )
b1100 1
b1101 %
b1101 0
b111 #
b111 .
b111 -
1,
1&
#70000
1+
0*
b0 (
0,
0&
#75000
04
13
b111 5
b111 "
b110 )
b110 1
b1001 %
b1001 0
b1000 #
b1000 .
b1000 -
1,
1&
#80000
0+
1*
b111 (
0,
0&
#85000
b1000 5
b1000 "
b1010 )
b1010 1
b101 %
b101 0
b1001 #
b1001 .
b1001 -
1,
1&
#90000
b1000 (
0,
0&
#95000
b11 5
b11 "
b111 )
b111 1
b1010 #
b1010 .
b1010 -
1,
1&
#100000
b110 (
0,
0&
#105000
b1100 5
b1100 "
b1111 )
b1111 1
b10 %
b10 0
b1011 #
b1011 .
b1011 -
1,
1&
#110000
b1100 (
0,
0&
#115000
b1110 )
b1110 1
b1100 #
b1100 .
b1100 -
1,
1&
#120000
0,
0&
#125000
b1010 5
b1010 "
b101 )
b101 1
b1000 %
b1000 0
b1101 #
b1101 .
b1101 -
1,
1&
#130000
b1010 (
0,
0&
#135000
14
03
b111 5
b111 "
b1101 )
b1101 1
b1100 %
b1100 0
b1110 #
b1110 .
b1110 -
1,
1&
#140000
1+
0*
b111 (
0,
0&
#145000
b1 5
b1 "
b101 )
b101 1
b1101 %
b1101 0
b1111 #
b1111 .
b1111 -
1,
1&
#150000
b1 (
0,
0&
#155000
02
0!
04
b1110 5
b1110 "
b1010 )
b1010 1
b11 %
b11 0
b1 $
b1 /
b0 #
b0 .
b10000 -
1,
1&
#160000
0'
0+
b1110 (
0,
0&
#165000
b10 5
b10 "
b0 )
b0 1
b0 %
b0 0
b1 #
b1 .
b10001 -
1,
1&
#170000
b10 (
0,
0&
#175000
12
1!
13
b1010 5
b1010 "
b1101 )
b1101 1
b1010 %
b1010 0
b10 #
b10 .
b10010 -
1,
1&
#180000
1'
1*
b1010 (
0,
0&
#185000
02
0!
03
b1101 5
b1101 "
b11 )
b11 1
b110 %
b110 0
b11 #
b11 .
b10011 -
1,
1&
#190000
0'
0*
b1101 (
0,
0&
#195000
12
1!
13
b101 5
b101 "
b1101 %
b1101 0
b100 #
b100 .
b10100 -
1,
1&
#200000
1'
1*
b101 (
0,
0&
#205000
b11 5
b11 "
b101 )
b101 1
b1011 %
b1011 0
b101 #
b101 .
b10101 -
1,
1&
#210000
b110 (
0,
0&
#215000
b111 5
b111 "
b1110 )
b1110 1
b10 %
b10 0
b110 #
b110 .
b10110 -
1,
1&
#220000
b111 (
0,
0&
#225000
14
03
b100 5
b100 "
b1111 )
b1111 1
b1101 %
b1101 0
b111 #
b111 .
b10111 -
1,
1&
#230000
1+
0*
b100 (
0,
0&
#235000
04
13
b110 5
b110 "
b1010 )
b1010 1
b11 %
b11 0
b1000 #
b1000 .
b11000 -
1,
1&
#240000
0+
1*
b110 (
0,
0&
#245000
14
03
b0 5
b0 "
b1100 )
b1100 1
b1010 %
b1010 0
b1001 #
b1001 .
b11001 -
1,
1&
#250000
1+
0*
b0 (
0,
0&
#255000
b11 5
b11 "
b1010 )
b1010 1
b10 %
b10 0
b1010 #
b1010 .
b11010 -
1,
1&
#260000
0+
1*
b111 (
0,
0&
#265000
04
13
b101 5
b101 "
b1000 )
b1000 1
b1 %
b1 0
b1011 #
b1011 .
b11011 -
1,
1&
#270000
b101 (
0,
0&
#275000
b1110 5
b1110 "
b1001 )
b1001 1
b1000 %
b1000 0
b1100 #
b1100 .
b11100 -
1,
1&
#280000
b1110 (
0,
0&
#285000
b1111 5
b1111 "
b110 )
b110 1
b1011 %
b1011 0
b1101 #
b1101 .
b11101 -
1,
1&
#290000
b1111 (
0,
0&
#295000
14
03
b11 5
b11 "
b1110 )
b1110 1
b110 %
b110 0
b1110 #
b1110 .
b11110 -
1,
1&
#300000
1+
0*
b11 (
0,
0&
#305000
b110 5
b110 "
b1010 )
b1010 1
b1100 %
b1100 0
b1111 #
b1111 .
b11111 -
1,
1&
#310000
b110 (
0,
0&
#315000
02
0!
04
b1110 5
b1110 "
b1 )
b1 1
b1011 %
b1011 0
b10 $
b10 /
b0 #
b0 .
b100000 -
1,
1&
#320000
0'
0+
b1110 (
0,
0&
#325000
12
1!
13
b111 5
b111 "
b1111 )
b1111 1
b101 %
b101 0
b1 #
b1 .
b100001 -
1,
1&
#330000
1'
1*
b111 (
0,
0&
#335000
b1001 5
b1001 "
b1010 )
b1010 1
b1011 %
b1011 0
b10 #
b10 .
b100010 -
1,
1&
#340000
b1001 (
0,
0&
#345000
b1000 5
b1000 "
b101 )
b101 1
b1110 %
b1110 0
b11 #
b11 .
b100011 -
1,
1&
#350000
b1000 (
0,
0&
#355000
b0 5
b0 "
b1001 )
b1001 1
b1 %
b1 0
b100 #
b100 .
b100100 -
1,
1&
#360000
b0 (
0,
0&
#365000
b11 5
b11 "
b1100 )
b1100 1
b10 %
b10 0
b101 #
b101 .
b100101 -
1,
1&
#370000
b101 (
0,
0&
#375000
14
03
b110 5
b110 "
b1111 )
b1111 1
b1111 %
b1111 0
b110 #
b110 .
b100110 -
1,
1&
#380000
1+
0*
b110 (
0,
0&
#385000
04
13
b1000 5
b1000 "
b111 )
b111 1
b1000 %
b1000 0
b111 #
b111 .
b100111 -
1,
1&
#390000
0+
1*
b1000 (
0,
0&
#395000
14
03
b101 5
b101 "
b1100 )
b1100 1
b1111 %
b1111 0
b1000 #
b1000 .
b101000 -
1,
1&
#400000
1+
0*
b101 (
0,
0&
#405000
04
13
b1111 5
b1111 "
b1001 )
b1001 1
b1011 %
b1011 0
b1001 #
b1001 .
b101001 -
1,
1&
#410000
0+
1*
b1111 (
0,
0&
#415000
b11 5
b11 "
b0 )
b0 1
b1001 %
b1001 0
b1010 #
b1010 .
b101010 -
1,
1&
#420000
b101 (
0,
0&
#425000
b101 5
b101 "
b1 )
b1 1
b111 %
b111 0
b1011 #
b1011 .
b101011 -
1,
1&
#430000
0,
0&
#435000
14
03
b0 5
b0 "
b1100 )
b1100 1
b110 %
b110 0
b1100 #
b1100 .
b101100 -
1,
1&
#440000
1+
0*
b0 (
0,
0&
#445000
04
13
b1001 5
b1001 "
b1000 )
b1000 1
b10 %
b10 0
b1101 #
b1101 .
b101101 -
1,
1&
#450000
0+
1*
b1001 (
0,
0&
#455000
14
03
b100 5
b100 "
b1101 )
b1101 1
b111 %
b111 0
b1110 #
b1110 .
b101110 -
1,
1&
#460000
1+
0*
b100 (
0,
0&
#465000
b1 5
b1 "
b1110 )
b1110 1
b10 %
b10 0
b1111 #
b1111 .
b101111 -
1,
1&
#470000
b1 (
0,
0&
#475000
04
13
b1001 5
b1001 "
b1001 )
b1001 1
b1101 %
b1101 0
b11 $
b11 /
b0 #
b0 .
b110000 -
1,
1&
#480000
0+
1*
b1001 (
0,
0&
#485000
b110 5
b110 "
b11 )
b11 1
b1111 %
b1111 0
b1 #
b1 .
b110001 -
1,
1&
#490000
b110 (
0,
0&
#495000
b10 5
b10 "
b1000 )
b1000 1
b101 %
b101 0
b10 #
b10 .
b110010 -
1,
1&
#500000
b10 (
0,
0&
#505000
b1010 5
b1010 "
b1001 )
b1001 1
b1011 %
b1011 0
b11 #
b11 .
b110011 -
1,
1&
#510000
b1010 (
0,
0&
#515000
14
03
b0 5
b0 "
b1010 )
b1010 1
b1111 %
b1111 0
b100 #
b100 .
b110100 -
1,
1&
#520000
1+
0*
b0 (
0,
0&
#525000
b11 5
b11 "
b110 )
b110 1
b1000 %
b1000 0
b101 #
b101 .
b110101 -
1,
1&
#530000
0+
1*
b110 (
0,
0&
#535000
b1100 )
b1100 1
b1110 %
b1110 0
b110 #
b110 .
b110110 -
1,
1&
#540000
1+
0*
b11 (
0,
0&
#545000
04
13
b1010 5
b1010 "
b110 )
b110 1
b1010 %
b1010 0
b111 #
b111 .
b110111 -
1,
1&
#550000
0+
1*
b1010 (
0,
0&
#555000
b1 5
b1 "
b11 )
b11 1
b11 %
b11 0
b1000 #
b1000 .
b111000 -
1,
1&
#560000
b1 (
0,
0&
#565000
b1110 5
b1110 "
b1111 %
b1111 0
b1001 #
b1001 .
b111001 -
1,
1&
#570000
b1110 (
0,
0&
#575000
b11 5
b11 "
b100 )
b100 1
b1010 #
b1010 .
b111010 -
1,
1&
#580000
1+
0*
b0 (
0,
0&
#585000
14
03
b0 5
b0 "
b1011 )
b1011 1
b111 %
b111 0
b1011 #
b1011 .
b111011 -
1,
1&
#590000
0,
0&
#595000
04
13
b1111 5
b1111 "
b1010 )
b1010 1
b110 %
b110 0
b1100 #
b1100 .
b111100 -
1,
1&
#600000
0+
1*
b1111 (
0,
0&
#605000
14
03
b110 5
b110 "
b1101 )
b1101 1
b1001 %
b1001 0
b1101 #
b1101 .
b111101 -
1,
1&
#610000
1+
0*
b110 (
0,
0&
#615000
b0 5
b0 "
b101 )
b101 1
b1010 %
b1010 0
b1110 #
b1110 .
b111110 -
1,
1&
#620000
b0 (
0,
0&
#625000
b110 5
b110 "
b1111 )
b1111 1
b101 %
b101 0
b1111 #
b1111 .
b111111 -
1,
1&
#630000
b110 (
0,
0&
#635000
04
13
b1 5
b1 "
b100 )
b100 1
b1001 %
b1001 0
b100 $
b100 /
b0 #
b0 .
b1000000 -
1,
1&
#640000
0+
1*
b1 (
0,
0&
#645000
02
0!
03
b1111 5
b1111 "
b1010 )
b1010 1
b0 %
b0 0
b1 #
b1 .
b1000001 -
1,
1&
#650000
0'
0*
b1111 (
0,
0&
#655000
12
1!
13
b1110 )
b1110 1
b1011 %
b1011 0
b10 #
b10 .
b1000010 -
1,
1&
#660000
1'
1*
0,
0&
#665000
b1101 5
b1101 "
b1010 )
b1010 1
b1100 %
b1100 0
b11 #
b11 .
b1000011 -
1,
1&
#670000
b1101 (
0,
0&
#675000
b1000 5
b1000 "
b11 )
b11 1
b1101 %
b1101 0
b100 #
b100 .
b1000100 -
1,
1&
#680000
b1000 (
0,
0&
#685000
b11 5
b11 "
b1110 )
b1110 1
b110 %
b110 0
b101 #
b101 .
b1000101 -
1,
1&
#690000
b1101 (
0,
0&
#695000
b1011 5
b1011 "
b1010 )
b1010 1
b111 %
b111 0
b110 #
b110 .
b1000110 -
1,
1&
#700000
b1011 (
0,
0&
#705000
b1001 5
b1001 "
b1000 )
b1000 1
b110 %
b110 0
b111 #
b111 .
b1000111 -
1,
1&
#710000
b1001 (
0,
0&
#715000
b1101 5
b1101 "
b1001 %
b1001 0
b1000 #
b1000 .
b1001000 -
1,
1&
#720000
b1101 (
0,
0&
#725000
b100 5
b100 "
b11 )
b11 1
b100 %
b100 0
b1001 #
b1001 .
b1001001 -
1,
1&
#730000
b100 (
0,
0&
#735000
b11 5
b11 "
b1001 )
b1001 1
b1010 #
b1010 .
b1001010 -
1,
1&
#740000
b1011 (
0,
0&
#745000
14
03
b111 5
b111 "
b1101 )
b1101 1
b1011 %
b1011 0
b1011 #
b1011 .
b1001011 -
1,
1&
#750000
1+
0*
b111 (
0,
0&
#755000
b110 5
b110 "
b1001 %
b1001 0
b1100 #
b1100 .
b1001100 -
1,
1&
#760000
b110 (
0,
0&
#765000
b1 5
b1 "
b1010 )
b1010 1
b110 %
b110 0
b1101 #
b1101 .
b1001101 -
1,
1&
#770000
b1 (
0,
0&
#775000
04
13
b1101 5
b1101 "
b101 )
b101 1
b1110 #
b1110 .
b1001110 -
1,
1&
#780000
0+
1*
b1101 (
0,
0&
#785000
b100 )
b100 1
b1111 #
b1111 .
b1001111 -
1,
1&
#790000
0,
0&
#795000
b101 5
b101 "
b1001 )
b1001 1
b111 %
b111 0
b101 $
b101 /
b0 #
b0 .
b1010000 -
1,
1&
#800000
b101 (
0,
0&
#805000
b10 5
b10 "
b1000 )
b1000 1
b100 %
b100 0
b1 #
b1 .
b1010001 -
1,
1&
#810000
b10 (
0,
0&
#815000
b1100 5
b1100 "
b1101 )
b1101 1
b1000 %
b1000 0
b10 #
b10 .
b1010010 -
1,
1&
#820000
b1100 (
0,
0&
#825000
b1101 5
b1101 "
b1110 )
b1110 1
b111 %
b111 0
b11 #
b11 .
b1010011 -
1,
1&
#830000
b1101 (
0,
0&
#835000
b1100 )
b1100 1
b1000 %
b1000 0
b100 #
b100 .
b1010100 -
1,
1&
#840000
0,
0&
#845000
b11 5
b11 "
b1001 )
b1001 1
b1101 %
b1101 0
b101 #
b101 .
b1010101 -
1,
1&
#850000
1+
0*
b0 (
0,
0&
#855000
b1101 5
b1101 "
b110 )
b110 1
b1100 %
b1100 0
b110 #
b110 .
b1010110 -
1,
1&
#860000
0+
1*
b1101 (
0,
0&
#865000
14
03
b11 5
b11 "
b1101 )
b1101 1
b1010 %
b1010 0
b111 #
b111 .
b1010111 -
1,
1&
#870000
1+
0*
b11 (
0,
0&
#875000
04
13
b0 )
b0 1
b110 %
b110 0
b1000 #
b1000 .
b1011000 -
1,
1&
#880000
0+
1*
0,
0&
#885000
b1011 5
b1011 "
b1010 )
b1010 1
b11 %
b11 0
b1001 #
b1001 .
b1011001 -
1,
1&
#890000
b1011 (
0,
0&
#895000
b11 5
b11 "
b1110 %
b1110 0
b1010 #
b1010 .
b1011010 -
1,
1&
#900000
1+
0*
b111 (
0,
0&
#905000
b1111 5
b1111 "
b101 %
b101 0
b1011 #
b1011 .
b1011011 -
1,
1&
#910000
0+
1*
b1111 (
0,
0&
#915000
14
03
b1 5
b1 "
b111 )
b111 1
b1001 %
b1001 0
b1100 #
b1100 .
b1011100 -
1,
1&
#920000
1+
0*
b1 (
0,
0&
#925000
04
13
b1000 5
b1000 "
b0 )
b0 1
b110 %
b110 0
b1101 #
b1101 .
b1011101 -
1,
1&
#930000
0+
1*
b1000 (
0,
0&
#935000
b1111 5
b1111 "
b110 )
b110 1
b1110 #
b1110 .
b1011110 -
1,
1&
#940000
b1111 (
0,
0&
#945000
14
03
b1101 5
b1101 "
b1100 )
b1100 1
b1101 %
b1101 0
b1111 #
b1111 .
b1011111 -
1,
1&
#950000
1+
0*
b1101 (
0,
0&
#955000
04
13
b100 5
b100 "
b1000 )
b1000 1
b110 %
b110 0
b110 $
b110 /
b0 #
b0 .
b1100000 -
1,
1&
#960000
0+
1*
b100 (
0,
0&
#965000
14
03
b0 5
b0 "
b1011 )
b1011 1
b1110 %
b1110 0
b1 #
b1 .
b1100001 -
1,
1&
#970000
1+
0*
b0 (
0,
0&
#975000
b1001 )
b1001 1
b1111 %
b1111 0
b10 #
b10 .
b1100010 -
1,
1&
#980000
0,
0&
#985000
04
13
b100 5
b100 "
b1 )
b1 1
b1010 %
b1010 0
b11 #
b11 .
b1100011 -
1,
1&
#990000
0+
1*
b100 (
0,
0&
#995000
b10 5
b10 "
b111 %
b111 0
b100 #
b100 .
b1100100 -
1,
1&
#1000000
b10 (
0,
0&
#1005000
b11 5
b11 "
b101 #
b101 .
b1100101 -
1,
1&
